{
	"info": {
		"_postman_id": "23a91bfe-69e6-41d7-96bc-291378f9b0e2",
		"name": "Lararticle",
		"schema": "https://schema.getpostman.com/json/collection/v2.1.0/collection.json"
	},
	"item": [
		{
			"name": "Auth",
			"item": [
				{
					"name": "login",
					"event": [
						{
							"listen": "test",
							"script": {
								"id": "596aab5c-dbd9-4829-81b6-dce9a9a76e50",
								"exec": [
									"var jsonData = JSON.parse(responseBody);\r",
									"\r",
									"//postman.setGlobalVariable(\"token-staff\", jsonData.token);\r",
									"postman.setEnvironmentVariable(\"token\", jsonData.access_token);"
								],
								"type": "text/javascript"
							}
						}
					],
					"request": {
						"method": "POST",
						"header": [
							{
								"key": "Accept",
								"value": "application/json",
								"type": "text"
							},
							{
								"key": "Content-Type",
								"value": "application/json",
								"type": "text"
							}
						],
						"body": {
							"mode": "formdata",
							"formdata": [
								{
									"key": "email",
									"value": "olotudammy@gmail.com",
									"type": "text"
								},
								{
									"key": "password",
									"value": "111111",
									"type": "text"
								}
							]
						},
						"url": {
							"raw": "{{prefix}}auth/login",
							"host": [
								"{{prefix}}auth"
							],
							"path": [
								"login"
							]
						}
					},
					"response": []
				},
				{
					"name": "register",
					"request": {
						"method": "POST",
						"header": [
							{
								"key": "Accept",
								"type": "text",
								"value": "application/json"
							},
							{
								"key": "Content-Type",
								"type": "text",
								"value": "application/json"
							}
						],
						"body": {
							"mode": "formdata",
							"formdata": [
								{
									"key": "name",
									"value": "Olotu Damilola Tosin",
									"type": "text"
								},
								{
									"key": "email",
									"value": "olotudammy@gmail.com",
									"type": "text"
								},
								{
									"key": "password",
									"value": "111111",
									"type": "text"
								}
							]
						},
						"url": {
							"raw": "{{prefix}}auth/register",
							"host": [
								"{{prefix}}auth"
							],
							"path": [
								"register"
							]
						}
					},
					"response": []
				}
			]
		},
		{
			"name": "Article",
			"item": [
				{
					"name": "list",
					"protocolProfileBehavior": {
						"disableBodyPruning": true
					},
					"request": {
						"method": "GET",
						"header": [
							{
								"key": "Accept",
								"type": "text",
								"value": "application/json"
							},
							{
								"key": "Content-Type",
								"type": "text",
								"value": "application/json"
							}
						],
						"body": {
							"mode": "formdata",
							"formdata": []
						},
						"url": {
							"raw": "{{prefix}}articles",
							"host": [
								"{{prefix}}articles"
							]
						}
					},
					"response": []
				},
				{
					"name": "get",
					"protocolProfileBehavior": {
						"disableBodyPruning": true
					},
					"request": {
						"method": "GET",
						"header": [
							{
								"key": "Accept",
								"type": "text",
								"value": "application/json"
							},
							{
								"key": "Content-Type",
								"type": "text",
								"value": "application/json"
							}
						],
						"body": {
							"mode": "formdata",
							"formdata": []
						},
						"url": {
							"raw": "{{prefix}}articles/1",
							"host": [
								"{{prefix}}articles"
							],
							"path": [
								"1"
							]
						}
					},
					"response": []
				},
				{
					"name": "search",
					"protocolProfileBehavior": {
						"disableBodyPruning": true
					},
					"request": {
						"method": "GET",
						"header": [
							{
								"key": "Accept",
								"type": "text",
								"value": "application/json"
							},
							{
								"key": "Content-Type",
								"type": "text",
								"value": "application/json"
							}
						],
						"body": {
							"mode": "formdata",
							"formdata": []
						},
						"url": {
							"raw": "{{prefix}}articles/1",
							"host": [
								"{{prefix}}articles"
							],
							"path": [
								"1"
							]
						}
					},
					"response": []
				},
				{
					"name": "update",
					"request": {
						"auth": {
							"type": "bearer",
							"bearer": [
								{
									"key": "token",
									"value": "{{token}}",
									"type": "string"
								}
							]
						},
						"method": "PUT",
						"header": [
							{
								"key": "Accept",
								"type": "text",
								"value": "application/json"
							},
							{
								"key": "Content-Type",
								"type": "text",
								"value": "application/json"
							}
						],
						"body": {
							"mode": "formdata",
							"formdata": [
								{
									"key": "title",
									"value": "This is title 2 yes",
									"type": "text"
								},
								{
									"key": "description",
									"value": "I love php yes",
									"type": "text"
								},
								{
									"key": "_method",
									"value": "PUT",
									"type": "text",
									"disabled": true
								}
							]
						},
						"url": {
							"raw": "{{prefix}}articles/1",
							"host": [
								"{{prefix}}articles"
							],
							"path": [
								"1"
							]
						}
					},
					"response": []
				},
				{
					"name": "delete",
					"request": {
						"method": "DELETE",
						"header": [
							{
								"key": "Accept",
								"type": "text",
								"value": "application/json"
							},
							{
								"key": "Content-Type",
								"type": "text",
								"value": "application/json"
							}
						],
						"body": {
							"mode": "formdata",
							"formdata": [
								{
									"key": "title",
									"value": "This is title 2",
									"type": "text"
								},
								{
									"key": "description",
									"value": "I love php",
									"type": "text"
								}
							]
						},
						"url": {
							"raw": "{{prefix}}articles/1",
							"host": [
								"{{prefix}}articles"
							],
							"path": [
								"1"
							]
						}
					},
					"response": []
				},
				{
					"name": "create",
					"request": {
						"auth": {
							"type": "bearer",
							"bearer": [
								{
									"key": "token",
									"value": "{{token}}",
									"type": "string"
								}
							]
						},
						"method": "POST",
						"header": [
							{
								"key": "Accept",
								"type": "text",
								"value": "application/json"
							},
							{
								"key": "Content-Type",
								"type": "text",
								"value": "application/json"
							}
						],
						"body": {
							"mode": "formdata",
							"formdata": [
								{
									"key": "title",
									"value": "This is title 2",
									"type": "text"
								},
								{
									"key": "description",
									"value": "This is description 2",
									"type": "text"
								}
							]
						},
						"url": {
							"raw": "{{prefix}}articles",
							"host": [
								"{{prefix}}articles"
							]
						}
					},
					"response": []
				},
				{
					"name": "rate",
					"request": {
						"auth": {
							"type": "bearer",
							"bearer": [
								{
									"key": "token",
									"value": "{{token}}",
									"type": "string"
								}
							]
						},
						"method": "POST",
						"header": [
							{
								"key": "Accept",
								"type": "text",
								"value": "application/json"
							},
							{
								"key": "Content-Type",
								"type": "text",
								"value": "application/json"
							}
						],
						"body": {
							"mode": "formdata",
							"formdata": [
								{
									"key": "number_of_stars",
									"value": "4",
									"type": "text"
								}
							]
						},
						"url": {
							"raw": "{{prefix}}articles/2/rating",
							"host": [
								"{{prefix}}articles"
							],
							"path": [
								"2",
								"rating"
							]
						}
					},
					"response": []
				}
			]
		}
	]
}